%YAML 1.1
%TAG !u! tag:unity3d.com,2011:
--- !u!29 &1
SceneSettings:
  m_ObjectHideFlags: 0
  m_PVSData: 
  m_PVSObjectsArray: []
  m_PVSPortalsArray: []
  m_OcclusionBakeSettings:
    smallestOccluder: 5
    smallestHole: .25
    backfaceThreshold: 100
--- !u!104 &2
RenderSettings:
  m_ObjectHideFlags: 0
  serializedVersion: 6
  m_Fog: 0
  m_FogColor: {r: .5, g: .5, b: .5, a: 1}
  m_FogMode: 3
  m_FogDensity: .00999999978
  m_LinearFogStart: 0
  m_LinearFogEnd: 300
  m_AmbientSkyColor: {r: .200000003, g: .200000003, b: .200000003, a: 1}
  m_AmbientEquatorColor: {r: .200000003, g: .200000003, b: .200000003, a: 1}
  m_AmbientGroundColor: {r: .200000003, g: .200000003, b: .200000003, a: 1}
  m_AmbientIntensity: 1
  m_AmbientMode: 3
  m_SkyboxMaterial: {fileID: 0}
  m_HaloStrength: .5
  m_FlareStrength: 1
  m_FlareFadeSpeed: 3
  m_HaloTexture: {fileID: 0}
  m_SpotCookie: {fileID: 10001, guid: 0000000000000000e000000000000000, type: 0}
  m_DefaultReflectionMode: 0
  m_DefaultReflectionResolution: 128
  m_ReflectionBounces: 1
  m_ReflectionIntensity: 1
  m_CustomReflection: {fileID: 0}
  m_Sun: {fileID: 0}
--- !u!127 &3
LevelGameManager:
  m_ObjectHideFlags: 0
--- !u!157 &4
LightmapSettings:
  m_ObjectHideFlags: 0
  serializedVersion: 5
  m_GIWorkflowMode: 1
  m_LightmapsMode: 1
  m_GISettings:
    serializedVersion: 2
    m_BounceScale: 1
    m_IndirectOutputScale: 1
    m_AlbedoBoost: 1
    m_TemporalCoherenceThreshold: 1
    m_EnvironmentLightingMode: 0
    m_EnableBakedLightmaps: 1
    m_EnableRealtimeLightmaps: 0
  m_LightmapEditorSettings:
    serializedVersion: 3
    m_Resolution: 1
    m_BakeResolution: 50
    m_TextureWidth: 1024
    m_TextureHeight: 1024
    m_AOMaxDistance: 1
    m_Padding: 2
    m_CompAOExponent: 0
    m_LightmapParameters: {fileID: 0}
    m_TextureCompression: 0
    m_FinalGather: 0
    m_FinalGatherRayCount: 1024
  m_LightmapSnapshot: {fileID: 0}
  m_RuntimeCPUUsage: 25
--- !u!1 &5
GameObject:
  m_ObjectHideFlags: 0
  m_PrefabParentObject: {fileID: 0}
  m_PrefabInternal: {fileID: 0}
  serializedVersion: 4
  m_Component:
  - 4: {fileID: 9}
  - 33: {fileID: 15}
  - 64: {fileID: 16}
  - 23: {fileID: 14}
  m_Layer: 0
  m_Name: Plane
  m_TagString: Untagged
  m_Icon: {fileID: 0}
  m_NavMeshLayer: 0
  m_StaticEditorFlags: 0
  m_IsActive: 1
--- !u!1 &6
GameObject:
  m_ObjectHideFlags: 0
  m_PrefabParentObject: {fileID: 0}
  m_PrefabInternal: {fileID: 0}
  serializedVersion: 4
  m_Component:
  - 4: {fileID: 10}
  - 114: {fileID: 20}
  m_Layer: 0
  m_Name: GUI
  m_TagString: Untagged
  m_Icon: {fileID: 0}
  m_NavMeshLayer: 0
  m_StaticEditorFlags: 0
  m_IsActive: 1
--- !u!1 &7
GameObject:
  m_ObjectHideFlags: 0
  m_PrefabParentObject: {fileID: 100000, guid: 85cee654f3c993a4185057b9717b096b, type: 2}
  m_PrefabInternal: {fileID: 687241309}
  serializedVersion: 4
  m_Component:
  - 4: {fileID: 11}
  - 114: {fileID: 21}
  m_Layer: 0
  m_Name: AudioController_additional_Music
  m_TagString: Untagged
  m_Icon: {fileID: 0}
  m_NavMeshLayer: 0
  m_StaticEditorFlags: 0
  m_IsActive: 1
--- !u!1 &8
GameObject:
  m_ObjectHideFlags: 0
  m_PrefabParentObject: {fileID: 0}
  m_PrefabInternal: {fileID: 0}
  serializedVersion: 4
  m_Component:
  - 4: {fileID: 12}
  - 20: {fileID: 13}
  - 92: {fileID: 18}
  - 124: {fileID: 19}
  - 81: {fileID: 17}
  m_Layer: 0
  m_Name: Main Camera
  m_TagString: MainCamera
  m_Icon: {fileID: 0}
  m_NavMeshLayer: 0
  m_StaticEditorFlags: 0
  m_IsActive: 1
--- !u!4 &9
Transform:
  m_ObjectHideFlags: 0
  m_PrefabParentObject: {fileID: 0}
  m_PrefabInternal: {fileID: 0}
  m_GameObject: {fileID: 5}
  m_LocalRotation: {x: -8.28213409e-09, y: .98188597, z: -.189473137, w: -4.29195985e-08}
  m_LocalPosition: {x: 0, y: 0, z: 0}
  m_LocalScale: {x: .705278635, y: .705278635, z: .705278635}
  m_Children: []
  m_Father: {fileID: 0}
  m_RootOrder: 4
--- !u!4 &10
Transform:
  m_ObjectHideFlags: 0
  m_PrefabParentObject: {fileID: 0}
  m_PrefabInternal: {fileID: 0}
  m_GameObject: {fileID: 6}
  m_LocalRotation: {x: 0, y: 0, z: 0, w: 1}
  m_LocalPosition: {x: 394.443359, y: 332.896729, z: -105.173828}
  m_LocalScale: {x: 1, y: 1, z: 1}
  m_Children: []
  m_Father: {fileID: 0}
  m_RootOrder: 2
--- !u!4 &11
Transform:
  m_ObjectHideFlags: 0
  m_PrefabParentObject: {fileID: 400000, guid: 85cee654f3c993a4185057b9717b096b, type: 2}
  m_PrefabInternal: {fileID: 687241309}
  m_GameObject: {fileID: 7}
  m_LocalRotation: {x: 0, y: 0, z: 0, w: 1}
  m_LocalPosition: {x: 394.443359, y: 332.896729, z: -105.173828}
  m_LocalScale: {x: 1, y: 1, z: 1}
  m_Children: []
  m_Father: {fileID: 0}
  m_RootOrder: 1
--- !u!4 &12
Transform:
  m_ObjectHideFlags: 0
  m_PrefabParentObject: {fileID: 0}
  m_PrefabInternal: {fileID: 0}
  m_GameObject: {fileID: 8}
  m_LocalRotation: {x: 0, y: 0, z: 0, w: 1}
  m_LocalPosition: {x: 0, y: 1, z: -10}
  m_LocalScale: {x: 1, y: 1, z: 1}
  m_Children: []
  m_Father: {fileID: 0}
  m_RootOrder: 3
--- !u!20 &13
Camera:
  m_ObjectHideFlags: 0
  m_PrefabParentObject: {fileID: 0}
  m_PrefabInternal: {fileID: 0}
  m_GameObject: {fileID: 8}
  m_Enabled: 1
  serializedVersion: 2
  m_ClearFlags: 1
  m_BackGroundColor: {r: .192156866, g: .301960796, b: .474509805, a: .0196078438}
  m_NormalizedViewPortRect:
    serializedVersion: 2
    x: 0
    y: 0
    width: 1
    height: 1
  near clip plane: .300000012
  far clip plane: 1000
  field of view: 60
  orthographic: 0
  orthographic size: 100
  m_Depth: -1
  m_CullingMask:
    serializedVersion: 2
    m_Bits: 4294967295
  m_RenderingPath: -1
  m_TargetTexture: {fileID: 0}
  m_TargetDisplay: 0
  m_HDR: 0
  m_OcclusionCulling: 1
  m_StereoConvergence: 10
  m_StereoSeparation: .0219999999
  m_StereoMirrorMode: 0
--- !u!23 &14
MeshRenderer:
  m_ObjectHideFlags: 0
  m_PrefabParentObject: {fileID: 0}
  m_PrefabInternal: {fileID: 0}
  m_GameObject: {fileID: 5}
  m_Enabled: 1
  m_CastShadows: 1
  m_ReceiveShadows: 1
  m_Materials:
  - {fileID: 2100000, guid: 61e8cef0363d0454694b3ae49b2d6943, type: 2}
  m_SubsetIndices: 
  m_StaticBatchRoot: {fileID: 0}
  m_UseLightProbes: 0
  m_ReflectionProbeUsage: 1
  m_ProbeAnchor: {fileID: 0}
  m_ScaleInLightmap: 1
  m_PreserveUVs: 0
  m_ImportantGI: 0
  m_AutoUVMaxDistance: .5
  m_AutoUVMaxAngle: 89
  m_LightmapParameters: {fileID: 0}
  m_SortingLayerID: 0
  m_SortingOrder: 0
--- !u!33 &15
MeshFilter:
  m_ObjectHideFlags: 0
  m_PrefabParentObject: {fileID: 0}
  m_PrefabInternal: {fileID: 0}
  m_GameObject: {fileID: 5}
  m_Mesh: {fileID: 10209, guid: 0000000000000000e000000000000000, type: 0}
--- !u!64 &16
MeshCollider:
  m_ObjectHideFlags: 0
  m_PrefabParentObject: {fileID: 0}
  m_PrefabInternal: {fileID: 0}
  m_GameObject: {fileID: 5}
  m_Material: {fileID: 0}
  m_IsTrigger: 0
  m_Enabled: 1
  serializedVersion: 2
  m_Convex: 0
  m_Mesh: {fileID: 10209, guid: 0000000000000000e000000000000000, type: 0}
--- !u!81 &17
AudioListener:
  m_ObjectHideFlags: 0
  m_PrefabParentObject: {fileID: 0}
  m_PrefabInternal: {fileID: 0}
  m_GameObject: {fileID: 8}
  m_Enabled: 1
--- !u!92 &18
Behaviour:
  m_ObjectHideFlags: 0
  m_PrefabParentObject: {fileID: 0}
  m_PrefabInternal: {fileID: 0}
  m_GameObject: {fileID: 8}
  m_Enabled: 1
--- !u!124 &19
Behaviour:
  m_ObjectHideFlags: 0
  m_PrefabParentObject: {fileID: 0}
  m_PrefabInternal: {fileID: 0}
  m_GameObject: {fileID: 8}
  m_Enabled: 1
--- !u!114 &20
MonoBehaviour:
  m_ObjectHideFlags: 0
  m_PrefabParentObject: {fileID: 0}
  m_PrefabInternal: {fileID: 0}
  m_GameObject: {fileID: 6}
  m_Enabled: 1
  m_EditorHideFlags: 0
  m_Script: {fileID: 11500000, guid: c65111a9744b89241beca571dea96b51, type: 3}
  m_Name: 
  m_EditorClassIdentifier: 
  customAudioClip: {fileID: 8300000, guid: 40621143b91cd4b40a6e7d7ed326be87, type: 3}
--- !u!114 &21
MonoBehaviour:
  m_ObjectHideFlags: 0
  m_PrefabParentObject: {fileID: 11400000, guid: 85cee654f3c993a4185057b9717b096b,
    type: 2}
  m_PrefabInternal: {fileID: 687241309}
  m_GameObject: {fileID: 7}
  m_Enabled: 1
  m_EditorHideFlags: 0
  m_Script: {fileID: 11500000, guid: 1669b0a062dc66842ab1bca41a93ebe4, type: 3}
  m_Name: 
  m_EditorClassIdentifier: 
  AudioObjectPrefab: {fileID: 100000, guid: 0c1c735ac5b98ad428f564386ebb50c9, type: 2}
  Persistent: 0
  UnloadAudioClipsOnDestroy: 0
  UsePooledAudioObjects: 1
  PlayWithZeroVolume: 0
  EqualPowerCrossfade: 0
  musicCrossFadeTime: 2
  specifyCrossFadeInAndOutSeperately: 0
  _musicCrossFadeTime_In: 0
  _musicCrossFadeTime_Out: 0
  AudioCategories:
  - Name: Music
    _parentCategoryName: 
    AudioObjectPrefab: {fileID: 0}
    AudioItems:
    - Name: MusicTrack1
      Loop: 1
      loopSequenceCount: 0
      loopSequenceOverlap: 0
      loopSequenceRandomDelay: 0
      loopSequenceRandomPitch: 0
      loopSequenceRandomVolume: 0
      DestroyOnLoad: 1
      Volume: 1
      SubItemPickMode: 2
      MinTimeBetweenPlayCalls: .100000001
      MaxInstanceCount: 0
      Delay: 0
      overrideAudioSourceSettings: 0
      audioSource_MinDistance: 1
      audioSource_MaxDistance: 500
      subItems:
      - SubItemType: 0
        Probability: 1
        DisableOtherSubitems: 0
        ItemModeAudioID: 
        Clip: {fileID: 8300000, guid: 1477e51e048525f4681ff66dac72263c, type: 3}
        Volume: 1
        PitchShift: 0
        Pan2D: 0
        Delay: 0
        RandomPitch: 0
        RandomVolume: 0
        RandomDelay: 0
        ClipStopTime: 0
        ClipStartTime: 0
        FadeIn: 0
        FadeOut: 0
        RandomStartPosition: 0
    - Name: MusicTrack2
      Loop: 1
      loopSequenceCount: 0
      loopSequenceOverlap: 0
      loopSequenceRandomDelay: 0
      loopSequenceRandomPitch: 0
      loopSequenceRandomVolume: 0
      DestroyOnLoad: 1
      Volume: 1
      SubItemPickMode: 2
      MinTimeBetweenPlayCalls: .100000001
      MaxInstanceCount: 0
      Delay: 0
      overrideAudioSourceSettings: 0
      audioSource_MinDistance: 1
      audioSource_MaxDistance: 500
      subItems:
      - SubItemType: 0
        Probability: 1
        DisableOtherSubitems: 0
        ItemModeAudioID: 
        Clip: {fileID: 8300000, guid: f346b651c066c2046858fa9f34f2c67a, type: 3}
        Volume: 1
        PitchShift: 0
        Pan2D: 0
        Delay: 0
        RandomPitch: 0
        RandomVolume: 0
        RandomDelay: 0
        ClipStopTime: 0
        ClipStartTime: 0
        FadeIn: 0
        FadeOut: 0
        RandomStartPosition: 0
    _volume: 1
  musicPlaylist:
  - Bassoon
  - Flute
  - Windbells
  - Oboe
  loopPlaylist: 1
  shufflePlaylist: 0
  crossfadePlaylist: 0
  delayBetweenPlaylistTracks: 1
  _isAdditionalAudioController: 1
  _audioDisabled: 0
  _volume: 1
  _currentInspectorSelection:
    currentCategoryIndex: 0
    currentItemIndex: 1
    currentSubitemIndex: 0
    currentPlaylistIndex: 0
--- !u!196 &23
NavMeshSettings:
  serializedVersion: 2
  m_ObjectHideFlags: 0
  m_BuildSettings:
    serializedVersion: 2
    agentRadius: .5
    agentHeight: 2
    agentSlope: 45
    agentClimb: .400000006
    ledgeDropHeight: 0
    maxJumpAcrossDistance: 0
    accuratePlacement: 0
    minRegionArea: 2
    cellSize: .166666657
    manualCellSize: 0
  m_NavMeshData: {fileID: 0}
--- !u!1 &457004047
GameObject:
  m_ObjectHideFlags: 0
  m_PrefabParentObject: {fileID: 100000, guid: ec999f72f6204364aabb6d24a13dfd4c, type: 2}
  m_PrefabInternal: {fileID: 1055288830}
  serializedVersion: 4
  m_Component:
  - 4: {fileID: 457004048}
  - 114: {fileID: 457004049}
  m_Layer: 0
  m_Name: AudioController
  m_TagString: Untagged
  m_Icon: {fileID: 0}
  m_NavMeshLayer: 0
  m_StaticEditorFlags: 0
  m_IsActive: 1
--- !u!4 &457004048
Transform:
  m_ObjectHideFlags: 0
  m_PrefabParentObject: {fileID: 400000, guid: ec999f72f6204364aabb6d24a13dfd4c, type: 2}
  m_PrefabInternal: {fileID: 1055288830}
  m_GameObject: {fileID: 457004047}
  m_LocalRotation: {x: 0, y: 0, z: 0, w: 1}
  m_LocalPosition: {x: 394.443359, y: 332.896729, z: -105.173828}
  m_LocalScale: {x: 1, y: 1, z: 1}
  m_Children: []
  m_Father: {fileID: 0}
  m_RootOrder: 0
--- !u!114 &457004049
MonoBehaviour:
  m_ObjectHideFlags: 0
  m_PrefabParentObject: {fileID: 11400000, guid: ec999f72f6204364aabb6d24a13dfd4c,
    type: 2}
  m_PrefabInternal: {fileID: 1055288830}
  m_GameObject: {fileID: 457004047}
  m_Enabled: 1
  m_EditorHideFlags: 0
  m_Script: {fileID: 11500000, guid: 1669b0a062dc66842ab1bca41a93ebe4, type: 3}
  m_Name: 
  m_EditorClassIdentifier: 
  AudioObjectPrefab: {fileID: 100000, guid: 0c1c735ac5b98ad428f564386ebb50c9, type: 2}
  Persistent: 0
  UnloadAudioClipsOnDestroy: 0
  UsePooledAudioObjects: 1
  PlayWithZeroVolume: 0
  EqualPowerCrossfade: 0
  musicCrossFadeTime: 2
  specifyCrossFadeInAndOutSeperately: 0
  _musicCrossFadeTime_In: 0
  _musicCrossFadeTime_Out: 0
  AudioCategories:
  - Name: Music
    _parentCategoryName: 
    AudioObjectPrefab: {fileID: 0}
    AudioItems:
    - Name: Flute
      Loop: 0
      loopSequenceCount: 0
      loopSequenceOverlap: 0
      loopSequenceRandomDelay: 0
      loopSequenceRandomPitch: 0
      loopSequenceRandomVolume: 0
      DestroyOnLoad: 1
      Volume: 1
      SubItemPickMode: 2
      MinTimeBetweenPlayCalls: .100000001
      MaxInstanceCount: 0
      Delay: 0
      overrideAudioSourceSettings: 0
      audioSource_MinDistance: 1
      audioSource_MaxDistance: 500
      subItems:
      - SubItemType: 0
        Probability: 1
        DisableOtherSubitems: 0
        ItemModeAudioID: 
        Clip: {fileID: 8300000, guid: 4f2f1da69e35f7a4cbf358815275ba9d, type: 3}
        Volume: 1
        PitchShift: 0
        Pan2D: 0
        Delay: 0
        RandomPitch: 0
        RandomVolume: 0
        RandomDelay: 0
        ClipStopTime: 0
        ClipStartTime: 0
        FadeIn: 0
        FadeOut: 0
        RandomStartPosition: 0
    - Name: Bassoon
      Loop: 0
      loopSequenceCount: 0
      loopSequenceOverlap: 0
      loopSequenceRandomDelay: 0
      loopSequenceRandomPitch: 0
      loopSequenceRandomVolume: 0
      DestroyOnLoad: 1
      Volume: 1
      SubItemPickMode: 2
      MinTimeBetweenPlayCalls: .100000001
      MaxInstanceCount: 0
      Delay: 0
      overrideAudioSourceSettings: 0
      audioSource_MinDistance: 1
      audioSource_MaxDistance: 500
      subItems:
      - SubItemType: 0
        Probability: 1
        DisableOtherSubitems: 0
        ItemModeAudioID: 
        Clip: {fileID: 8300000, guid: 5395da06a60148748958db12d21e1521, type: 3}
        Volume: 1
        PitchShift: 0
        Pan2D: 0
        Delay: 0
        RandomPitch: 0
        RandomVolume: 0
        RandomDelay: 0
        ClipStopTime: 0
        ClipStartTime: 0
        FadeIn: 0
        FadeOut: 0
        RandomStartPosition: 0
    - Name: Oboe
      Loop: 0
      loopSequenceCount: 0
      loopSequenceOverlap: 0
      loopSequenceRandomDelay: 0
      loopSequenceRandomPitch: 0
      loopSequenceRandomVolume: 0
      DestroyOnLoad: 1
      Volume: 1
      SubItemPickMode: 2
      MinTimeBetweenPlayCalls: .100000001
      MaxInstanceCount: 0
      Delay: 0
      overrideAudioSourceSettings: 0
      audioSource_MinDistance: 1
      audioSource_MaxDistance: 500
      subItems:
      - SubItemType: 0
        Probability: 1
        DisableOtherSubitems: 0
        ItemModeAudioID: 
        Clip: {fileID: 8300000, guid: ffdd954625c734c49a08b93cc822a2d7, type: 3}
        Volume: 1
        PitchShift: 0
        Pan2D: 0
        Delay: 0
        RandomPitch: 0
        RandomVolume: 0
        RandomDelay: 0
        ClipStopTime: 0
        ClipStartTime: 0
        FadeIn: 0
        FadeOut: 0
        RandomStartPosition: 0
    - Name: Windbells
      Loop: 0
      loopSequenceCount: 0
      loopSequenceOverlap: 0
      loopSequenceRandomDelay: 0
      loopSequenceRandomPitch: 0
      loopSequenceRandomVolume: 0
      DestroyOnLoad: 1
      Volume: 1
      SubItemPickMode: 2
      MinTimeBetweenPlayCalls: .100000001
      MaxInstanceCount: 0
      Delay: 0
      overrideAudioSourceSettings: 0
      audioSource_MinDistance: 1
      audioSource_MaxDistance: 500
      subItems:
      - SubItemType: 0
        Probability: 1
        DisableOtherSubitems: 0
        ItemModeAudioID: 
        Clip: {fileID: 8300000, guid: b122a1f6f7f5c5e4a8fcd85d6c0f5b47, type: 3}
        Volume: 1
        PitchShift: 0
        Pan2D: 0
        Delay: 0
        RandomPitch: 0
        RandomVolume: 0
        RandomDelay: 0
        ClipStopTime: 0
        ClipStartTime: 0
        FadeIn: 0
        FadeOut: 0
        RandomStartPosition: 0
    _volume: 1
  - Name: SFX
    _parentCategoryName: 
    AudioObjectPrefab: {fileID: 0}
    AudioItems:
    - Name: AlternativeSound
      Loop: 0
      loopSequenceCount: 0
      loopSequenceOverlap: 0
      loopSequenceRandomDelay: 0
      loopSequenceRandomPitch: 0
      loopSequenceRandomVolume: 0
      DestroyOnLoad: 1
      Volume: 1
      SubItemPickMode: 2
      MinTimeBetweenPlayCalls: .100000001
      MaxInstanceCount: 0
      Delay: 0
      overrideAudioSourceSettings: 0
      audioSource_MinDistance: 1
      audioSource_MaxDistance: 500
      subItems:
      - SubItemType: 0
        Probability: 1
        DisableOtherSubitems: 0
        ItemModeAudioID: 
        Clip: {fileID: 8300000, guid: d13b15846ed1ac244bae9c369660469b, type: 3}
        Volume: 1
        PitchShift: 0
        Pan2D: 0
        Delay: 0
        RandomPitch: 0
        RandomVolume: 0
        RandomDelay: 0
        ClipStopTime: 0
        ClipStartTime: 0
        FadeIn: 0
        FadeOut: 0
        RandomStartPosition: 0
      - SubItemType: 0
        Probability: 1
        DisableOtherSubitems: 0
        ItemModeAudioID: 
        Clip: {fileID: 8300000, guid: 58f164b5f069d3741aab5410d8b63c0b, type: 3}
        Volume: 1
        PitchShift: 0
        Pan2D: 0
        Delay: 0
        RandomPitch: 0
        RandomVolume: 0
        RandomDelay: 0
        ClipStopTime: 0
        ClipStartTime: 0
        FadeIn: 0
        FadeOut: 0
        RandomStartPosition: 0
      - SubItemType: 0
        Probability: 1
        DisableOtherSubitems: 0
        ItemModeAudioID: 
        Clip: {fileID: 8300000, guid: 6eac2d2a9cb1ba24fbacc322c6564bb3, type: 3}
        Volume: 1
        PitchShift: 0
        Pan2D: 0
        Delay: 0
        RandomPitch: 0
        RandomVolume: 0
        RandomDelay: 0
        ClipStopTime: 0
        ClipStartTime: 0
        FadeIn: 0
        FadeOut: 0
        RandomStartPosition: 0
    - Name: RandomPitchSound
      Loop: 0
      loopSequenceCount: 0
      loopSequenceOverlap: 0
      loopSequenceRandomDelay: 0
      loopSequenceRandomPitch: 0
      loopSequenceRandomVolume: 0
      DestroyOnLoad: 1
      Volume: 1
      SubItemPickMode: 2
      MinTimeBetweenPlayCalls: .100000001
      MaxInstanceCount: 0
      Delay: 0
      overrideAudioSourceSettings: 0
      audioSource_MinDistance: 1
      audioSource_MaxDistance: 500
      subItems:
      - SubItemType: 0
        Probability: 1
        DisableOtherSubitems: 0
        ItemModeAudioID: 
        Clip: {fileID: 8300000, guid: c50e46164d463af48a2bfaebad87fbac, type: 3}
        Volume: 1
        PitchShift: 0
        Pan2D: 0
        Delay: 0
        RandomPitch: 4
        RandomVolume: 0
        RandomDelay: 0
        ClipStopTime: 0
        ClipStartTime: 0
        FadeIn: 0
        FadeOut: 0
        RandomStartPosition: 0
    - Name: RandomAndAlternativeSound
      Loop: 0
      loopSequenceCount: 0
      loopSequenceOverlap: 0
      loopSequenceRandomDelay: 0
      loopSequenceRandomPitch: 0
      loopSequenceRandomVolume: 0
      DestroyOnLoad: 1
      Volume: 1
      SubItemPickMode: 5
      MinTimeBetweenPlayCalls: .100000001
      MaxInstanceCount: 0
      Delay: 0
      overrideAudioSourceSettings: 0
      audioSource_MinDistance: 1
      audioSource_MaxDistance: 500
      subItems:
      - SubItemType: 1
        Probability: 1
        DisableOtherSubitems: 0
        ItemModeAudioID: AlternativeSound
        Clip: {fileID: 0}
        Volume: 1
        PitchShift: 0
        Pan2D: 0
        Delay: 0
        RandomPitch: 0
        RandomVolume: 0
        RandomDelay: 0
        ClipStopTime: 0
        ClipStartTime: 0
        FadeIn: 0
        FadeOut: 0
        RandomStartPosition: 0
      - SubItemType: 1
        Probability: 1
        DisableOtherSubitems: 0
        ItemModeAudioID: RandomPitchSound
        Clip: {fileID: 0}
        Volume: 1
        PitchShift: 0
        Pan2D: 0
        Delay: 0
        RandomPitch: 0
        RandomVolume: 0
        RandomDelay: 0
        ClipStopTime: 0
        ClipStartTime: 0
        FadeIn: 0
        FadeOut: 0
        RandomStartPosition: 0
    - Name: GaplessLoopTest
      Loop: 2
      loopSequenceCount: 0
      loopSequenceOverlap: 0
      loopSequenceRandomDelay: 0
      loopSequenceRandomPitch: 0
      loopSequenceRandomVolume: 0
      DestroyOnLoad: 1
      Volume: 1
      SubItemPickMode: 3
      MinTimeBetweenPlayCalls: .100000001
      MaxInstanceCount: 0
      Delay: 0
      overrideAudioSourceSettings: 0
      audioSource_MinDistance: 1
      audioSource_MaxDistance: 500
      subItems:
      - SubItemType: 0
        Probability: 1
        DisableOtherSubitems: 0
        ItemModeAudioID: 
        Clip: {fileID: 8300000, guid: 764a4922eec223f4e83873cf095911b2, type: 3}
        Volume: 1
        PitchShift: 0
        Pan2D: 0
        Delay: 0
        RandomPitch: 0
        RandomVolume: 0
        RandomDelay: 0
        ClipStopTime: 0
        ClipStartTime: 0
        FadeIn: 0
        FadeOut: 0
        RandomStartPosition: 0
      - SubItemType: 0
        Probability: 1
        DisableOtherSubitems: 0
        ItemModeAudioID: 
        Clip: {fileID: 8300000, guid: d5b89627c896a1b47833928c84db0f61, type: 3}
        Volume: 1
        PitchShift: 0
        Pan2D: 0
        Delay: 0
        RandomPitch: 0
        RandomVolume: 0
        RandomDelay: 0
        ClipStopTime: 0
        ClipStartTime: 0
        FadeIn: 0
        FadeOut: 0
        RandomStartPosition: 0
    - Name: RandomLoopSequence
      Loop: 2
      loopSequenceCount: 4
      loopSequenceOverlap: .200000003
      loopSequenceRandomDelay: 0
      loopSequenceRandomPitch: 0
      loopSequenceRandomVolume: 0
      DestroyOnLoad: 1
      Volume: 1
      SubItemPickMode: 2
      MinTimeBetweenPlayCalls: .100000001
      MaxInstanceCount: 0
      Delay: 0
      overrideAudioSourceSettings: 0
      audioSource_MinDistance: 1
      audioSource_MaxDistance: 500
      subItems:
      - SubItemType: 0
        Probability: 1
        DisableOtherSubitems: 0
        ItemModeAudioID: 
        Clip: {fileID: 8300000, guid: 626ae2f1d7b8bf34181d9837315934fb, type: 3}
        Volume: 1
        PitchShift: 0
        Pan2D: 0
        Delay: 0
        RandomPitch: 0
        RandomVolume: 0
        RandomDelay: 0
        ClipStopTime: 0
        ClipStartTime: 0
        FadeIn: 0
        FadeOut: 0
        RandomStartPosition: 0
      - SubItemType: 0
        Probability: 1
        DisableOtherSubitems: 0
        ItemModeAudioID: 
        Clip: {fileID: 8300000, guid: e93bb802125035f41b6b823af7151f91, type: 3}
        Volume: 1
        PitchShift: 0
        Pan2D: 0
        Delay: 0
        RandomPitch: 0
        RandomVolume: 0
        RandomDelay: 0
        ClipStopTime: 0
        ClipStartTime: 0
        FadeIn: 0
        FadeOut: 0
        RandomStartPosition: 0
      - SubItemType: 0
        Probability: 1
        DisableOtherSubitems: 0
        ItemModeAudioID: 
        Clip: {fileID: 8300000, guid: 51be9b4eef73af1458e0bd3b4be8cfd9, type: 3}
        Volume: 1
        PitchShift: 0
        Pan2D: 0
        Delay: 0
        RandomPitch: 0
        RandomVolume: 0
        RandomDelay: 0
        ClipStopTime: 0
        ClipStartTime: 0
        FadeIn: 0
        FadeOut: 0
        RandomStartPosition: 0
    - Name: IntroLoopOutro_Gun
      Loop: 5
      loopSequenceCount: 0
      loopSequenceOverlap: 0
      loopSequenceRandomDelay: 0
      loopSequenceRandomPitch: 0
      loopSequenceRandomVolume: 0
      DestroyOnLoad: 1
      Volume: 1
      SubItemPickMode: 7
      MinTimeBetweenPlayCalls: .100000001
      MaxInstanceCount: 0
      Delay: 0
      overrideAudioSourceSettings: 0
      audioSource_MinDistance: 1
      audioSource_MaxDistance: 500
      subItems:
      - SubItemType: 0
        Probability: 1
        DisableOtherSubitems: 0
        ItemModeAudioID: 
        Clip: {fileID: 8300000, guid: 8bcc1f2dcb2fe5e46a265e3afe0356ee, type: 3}
        Volume: 1
        PitchShift: 0
        Pan2D: 0
        Delay: 0
        RandomPitch: 0
        RandomVolume: 0
        RandomDelay: 0
        ClipStopTime: 0
        ClipStartTime: 0
        FadeIn: 0
        FadeOut: 0
        RandomStartPosition: 0
      - SubItemType: 0
        Probability: 1
        DisableOtherSubitems: 0
        ItemModeAudioID: 
        Clip: {fileID: 8300000, guid: 3cf7f885d89678c418b214b3042be57b, type: 3}
        Volume: 1
        PitchShift: 0
        Pan2D: 0
        Delay: 0
        RandomPitch: 0
        RandomVolume: 0
        RandomDelay: 0
        ClipStopTime: 0
        ClipStartTime: 0
        FadeIn: 0
        FadeOut: 0
        RandomStartPosition: 0
      - SubItemType: 0
        Probability: 1
        DisableOtherSubitems: 0
        ItemModeAudioID: 
        Clip: {fileID: 8300000, guid: 371431195bea08743838ed7a6c728439, type: 3}
        Volume: 1
        PitchShift: 0
        Pan2D: 0
        Delay: 0
        RandomPitch: 0
        RandomVolume: 0
        RandomDelay: 0
        ClipStopTime: 0
        ClipStartTime: 0
        FadeIn: 0
        FadeOut: 0
        RandomStartPosition: 0
    _volume: 1
  musicPlaylist:
  - Bassoon
  - Flute
  - Windbells
  - Oboe
  loopPlaylist: 1
  shufflePlaylist: 0
  crossfadePlaylist: 0
  delayBetweenPlaylistTracks: 1
  _isAdditionalAudioController: 0
  _audioDisabled: 0
  _volume: 1
  _currentInspectorSelection:
    currentCategoryIndex: 1
    currentItemIndex: 5
    currentSubitemIndex: 2
    currentPlaylistIndex: 0
--- !u!1001 &687241309
Prefab:
  m_ObjectHideFlags: 0
  serializedVersion: 2
  m_Modification:
    m_TransformParent: {fileID: 0}
    m_Modifications:
    - target: {fileID: 400000, guid: 85cee654f3c993a4185057b9717b096b, type: 2}
      propertyPath: m_LocalPosition.x
      value: 394.443359
      objectReference: {fileID: 0}
    - target: {fileID: 400000, guid: 85cee654f3c993a4185057b9717b096b, type: 2}
      propertyPath: m_LocalPosition.y
      value: 332.896729
      objectReference: {fileID: 0}
    - target: {fileID: 400000, guid: 85cee654f3c993a4185057b9717b096b, type: 2}
      propertyPath: m_LocalPosition.z
      value: -105.173828
      objectReference: {fileID: 0}
    - target: {fileID: 400000, guid: 85cee654f3c993a4185057b9717b096b, type: 2}
      propertyPath: m_LocalRotation.x
      value: 0
      objectReference: {fileID: 0}
    - target: {fileID: 400000, guid: 85cee654f3c993a4185057b9717b096b, type: 2}
      propertyPath: m_LocalRotation.y
      value: 0
      objectReference: {fileID: 0}
    - target: {fileID: 400000, guid: 85cee654f3c993a4185057b9717b096b, type: 2}
      propertyPath: m_LocalRotation.z
      value: 0
      objectReference: {fileID: 0}
    - target: {fileID: 400000, guid: 85cee654f3c993a4185057b9717b096b, type: 2}
      propertyPath: m_LocalRotation.w
      value: 1
      objectReference: {fileID: 0}
    m_RemovedComponents: []
  m_ParentPrefab: {fileID: 100100000, guid: 85cee654f3c993a4185057b9717b096b, type: 2}
  m_RootGameObject: {fileID: 7}
  m_IsPrefabParent: 0
--- !u!1001 &1055288830
Prefab:
  m_ObjectHideFlags: 0
  serializedVersion: 2
  m_Modification:
    m_TransformParent: {fileID: 0}
    m_Modifications:
    - target: {fileID: 100000, guid: ec999f72f6204364aabb6d24a13dfd4c, type: 2}
      propertyPath: m_Name
      value: AudioController
      objectReference: {fileID: 0}
    - target: {fileID: 400000, guid: ec999f72f6204364aabb6d24a13dfd4c, type: 2}
      propertyPath: m_LocalRotation.x
      value: 0
      objectReference: {fileID: 0}
    - target: {fileID: 400000, guid: ec999f72f6204364aabb6d24a13dfd4c, type: 2}
      propertyPath: m_LocalRotation.y
      value: 0
      objectReference: {fileID: 0}
    - target: {fileID: 400000, guid: ec999f72f6204364aabb6d24a13dfd4c, type: 2}
      propertyPath: m_LocalRotation.z
      value: 0
      objectReference: {fileID: 0}
    - target: {fileID: 400000, guid: ec999f72f6204364aabb6d24a13dfd4c, type: 2}
      propertyPath: m_LocalRotation.w
      value: 1
      objectReference: {fileID: 0}
    - target: {fileID: 400000, guid: ec999f72f6204364aabb6d24a13dfd4c, type: 2}
      propertyPath: m_LocalPosition.x
      value: 394.443359
      objectReference: {fileID: 0}
    - target: {fileID: 400000, guid: ec999f72f6204364aabb6d24a13dfd4c, type: 2}
      propertyPath: m_LocalPosition.y
      value: 332.896729
      objectReference: {fileID: 0}
    - target: {fileID: 400000, guid: ec999f72f6204364aabb6d24a13dfd4c, type: 2}
      propertyPath: m_LocalPosition.z
      value: -105.173828
      objectReference: {fileID: 0}
    m_RemovedComponents: []
  m_ParentPrefab: {fileID: 100100000, guid: ec999f72f6204364aabb6d24a13dfd4c, type: 2}
  m_RootGameObject: {fileID: 457004047}
  m_IsPrefabParent: 0
