%YAML 1.1
%TAG !u! tag:unity3d.com,2011:
--- !u!114 &11400000
MonoBehaviour:
  m_ObjectHideFlags: 0
  m_PrefabParentObject: {fileID: 0}
  m_PrefabInternal: {fileID: 0}
  m_GameObject: {fileID: 0}
  m_Enabled: 1
  m_EditorHideFlags: 0
  m_Script: {fileID: -876119452, guid: 3c2bf38b81912e545bda7d1ba62abf8f, type: 3}
  m_Name: NullVR
  m_EditorClassIdentifier: 
  PrefabToInstantiate: {fileID: 144066, guid: 0d8ca9267bf8dff4ca33e8f90819e6f5, type: 2}
