{  
   "packagesToAdd":[  
      "Interfaces",
      "OVRMobile",
      "Level_Default_Android",
      "Analytics",
	  "UnityCloudAnalytics",
	  "AudioController_Android",
	  "AudioToolkitSoundPlayer"
   ],
   "app_output_name":"breakoutVR",
   "buildOptions":"CompressTextures",
   "buildConfig":{  
      "bundleIdentifier":"com.asink.breakoutvr",
      "bundleVersion":"1",
      "companyName":"Alex Sink",
      "defaultInterfaceOrientation":"LandscapeLeft",
      "defaultIsFullScreen":true,
      "defaultScreenHeight":1080,
      "defaultScreenWidth":1920,
      "displayResolutionDialog":"HiddenByDefault",
      "productName":"breakout",
      "renderingPath":"Forward",
      "scriptingDefineSymbols":[  
         ""
      ],
      "stripUnusedMeshComponents":true,
      "supportedAspectRatios":[  
         "Aspect16by10",
         "Aspect16by9"
      ],
      "use32BitDisplayBuffer":false,
      "useDirect3D11":true,
      "usePlayerLog":true,
	  "graphicsAPIs":["OpenGLES2"]
   },
   "editorUserBuildSettings":{  
      "allowDebugging":false,
      "currentBuildTarget":"Android",
      "currentBuildTargetGroup":"Android",
      "development":false,
      "explicitNullChecks":false,
      "subtarget":"ETC2",
      "symlinkLibraries":false
   },
   "InterfaceMapping":{  
      "interfaceMap":{
      },
      "interfaceToMultipleMaps":{  

      },
      "namedStringTypes":{
	  "PLATFORM":"Android",	"CameraSettingsJson":"{\"clearFlags\":\"Skybox\",\"backgroundColor\":[0.13,0.15,0.2,0.01],\"depth\":-1,\"textureResourcesName\":\"DeepSpaceGreen/DSG\"}",   "ANALYTICS_INITIALIZATION":"{\"PRIMARY\":[\"92526837e8664acc7acb2cd57a454ec1c8c49c93\"],\"SECONDARY\":[\"{\\\"androidTrackingCode\\\":\\\"UA-58878985-1\\\",\\\"IOSTrackingCode\\\":\\\"UA-58878985-1\\\",\\\"otherTrackingCode\\\":\\\"UA-58878985-1\\\",\\\"bundleIdentifier\\\":\\\"com.asink.breakoutvr\\\",\\\"dispatchPeriod\\\":5,\\\"sampleFrequency\\\":100,\\\"logLevel\\\":\\\"WARNING\\\",\\\"anonymizeIP\\\":false,\\\"productName\\\":\\\"breakoutvr\\\",\\\"bundleVersion\\\":\\\"1\\\",\\\"dryRun\\\":false}\"],\"TERTIARY\":[\"7c9eca1e-bb82-42cf-ae6f-6b1166c5c8a7\"]}"
      },
      "namedIntTypes":{  

      }
   }
}