%YAML 1.1
%TAG !u! tag:unity3d.com,2011:
--- !u!114 &11400000
MonoBehaviour:
  m_ObjectHideFlags: 0
  m_PrefabParentObject: {fileID: 0}
  m_PrefabInternal: {fileID: 0}
  m_GameObject: {fileID: 0}
  m_Enabled: 1
  m_EditorHideFlags: 0
  m_Script: {fileID: 11500000, guid: e0b949e5b54196640b0f9ac003657a06, type: 3}
  m_Name: StrangeIOC
  m_EditorClassIdentifier: 
  nameOfDll: StrangeIOC
  listOfDependencies: []
  defines: []
  dllObjects: []
  EditorBuild: 0
  BaseDirectory: {fileID: 102900000, guid: 189a71385c5a2394785b4052fe7e815c, type: 3}
  buildType: 0
  pluginEditorBuild:
    DirectoriesToSearch: []
    blackListDirectories: []
    dllsToCopy: []
    enabled: 0
    flags: 3
  pluginBuild:
    DirectoriesToSearch: []
    blackListDirectories: []
    dllsToCopy: []
    enabled: 0
    flags: 2
  scriptsBuild:
    DirectoriesToSearch:
    - {fileID: 102900000, guid: 44002733bb01e0340aaaf312258f19cb, type: 3}
    blackListDirectories: []
    dllsToCopy: []
    enabled: 1
    flags: 0
  editorBuild:
    DirectoriesToSearch:
    - {fileID: 0}
    blackListDirectories: []
    dllsToCopy: []
    enabled: 0
    flags: 1
